{
  "project_info": {
    "project_number": "364537278842",
    "firebase_url": "https://spark-buz.firebaseio.com",
    "project_id": "spark-buz",
    "storage_bucket": "spark-buz.appspot.com"
  },
  "client": [
    {
      "client_info": {
        "mobilesdk_app_id": "1:364537278842:android:f409fc7940a688b49ce6c3",
        "android_client_info": {
          "package_name": "com.sparkbuz"
        }
      },
      "oauth_client": [
        {
          "client_id": "364537278842-d2ib5qauev35gvln4m4jquetgj891v9b.apps.googleusercontent.com",
          "client_type": 1,
          "android_info": {
            "package_name": "com.sparkbuz",
            "certificate_hash": "344721c112725f2a43f50c2b8ea8eac10e88300a"
          }
        },
        {
          "client_id": "364537278842-dkjv3jclanr494n4lndfr08n3kej5kqb.apps.googleusercontent.com",
          "client_type": 1,
          "android_info": {
            "package_name": "com.sparkbuz",
            "certificate_hash": "2759bcadeb3d542926fda10e6e0f38380a73bf06"
          }
        },
        {
          "client_id": "364537278842-o55nrg21440sk7uo4o8737e1lup86vg5.apps.googleusercontent.com",
          "client_type": 1,
          "android_info": {
            "package_name": "com.sparkbuz",
            "certificate_hash": "bcdb549de7eac63e3e4bea353e528c1ae7186896"
          }
        },
        {
          "client_id": "364537278842-pupevd5jn3v7co8mg61rd56r6hcr15mr.apps.googleusercontent.com",
          "client_type": 1,
          "android_info": {
            "package_name": "com.sparkbuz",
            "certificate_hash": "ed27d5da8d7f19a3ea8b5a727d42823c08b6a3fb"
          }
        },
        {
          "client_id": "364537278842-v15fg5m1i3aodmjdake1rj7us9ckoog2.apps.googleusercontent.com",
          "client_type": 1,
          "android_info": {
            "package_name": "com.sparkbuz",
            "certificate_hash": "3de35ee5219d0007ab33d2b1d41dcd3790c56c98"
          }
        },
        {
          "client_id": "364537278842-e711sqtdbmqp3e9jhjb5oe35m9e9r1vn.apps.googleusercontent.com",
          "client_type": 3
        }
      ],
      "api_key": [
        {
          "current_key": "AIzaSyBqnLQGuzamXHzOOAADPk4MX75WR41-Pqo"
        }
      ],
      "services": {
        "appinvite_service": {
          "other_platform_oauth_client": [
            {
              "client_id": "364537278842-e711sqtdbmqp3e9jhjb5oe35m9e9r1vn.apps.googleusercontent.com",
              "client_type": 3
            },
            {
              "client_id": "364537278842-6gvlivei14i3t1drgj4up7e1gvglsb5b.apps.googleusercontent.com",
              "client_type": 2,
              "ios_info": {
                "bundle_id": "com.sparkbuz.app"
              }
            }
          ]
        }
      }
    }
  ],
  "configuration_version": "1"
}